module gitlab.com/siriusfreak/ozontech-meetup-dec-09-2022

go 1.19

require (
	github.com/Microsoft/go-winio v0.5.1 // indirect
	github.com/PuerkitoBio/purell v1.1.1 // indirect
	github.com/PuerkitoBio/urlesc v0.0.0-20170810143723-de5bf2ad4578 // indirect
	github.com/StackExchange/wmi v0.0.0-20210224194228-fe8f1750fd46 // indirect
	github.com/aquasecurity/libbpfgo v0.3.0-libbpf-0.8.0 // indirect
	github.com/caarlos0/env/v6 v6.10.1 // indirect
	github.com/cespare/xxhash/v2 v2.1.2 // indirect
	github.com/corona10/goimagehash v1.1.0 // indirect
	github.com/davecgh/go-spew v1.1.1 // indirect
	github.com/emicklei/go-restful v2.14.2+incompatible // indirect
	github.com/go-logr/logr v1.2.3 // indirect
	github.com/go-ole/go-ole v1.2.5 // indirect
	github.com/go-openapi/jsonpointer v0.19.5 // indirect
	github.com/go-openapi/jsonreference v0.19.6 // indirect
	github.com/go-openapi/swag v0.21.1 // indirect
	github.com/gogo/protobuf v1.3.2 // indirect
	github.com/golang/protobuf v1.5.2 // indirect
	github.com/google/gnostic v0.5.7-v3refs // indirect
	github.com/google/gofuzz v1.2.0 // indirect
	github.com/hashicorp/errwrap v1.0.0 // indirect
	github.com/hashicorp/go-multierror v1.1.1 // indirect
	github.com/hashicorp/golang-lru v0.5.4 // indirect
	github.com/josharian/intern v1.0.0 // indirect
	github.com/json-iterator/go v1.1.12 // indirect
	github.com/mailru/easyjson v0.7.7 // indirect
	github.com/mitchellh/go-ps v1.0.0 // indirect
	github.com/modern-go/concurrent v0.0.0-20180306012644-bacd9c7ef1dd // indirect
	github.com/modern-go/reflect2 v1.0.2 // indirect
	github.com/munnerz/goautoneg v0.0.0-20191010083416-a7dc8b61c822 // indirect
	github.com/nfnt/resize v0.0.0-20180221191011-83c6a9932646 // indirect
	github.com/pyroscope-io/client v0.4.0 // indirect
	github.com/pyroscope-io/dotnetdiag v1.2.1 // indirect
	github.com/pyroscope-io/pyroscope v0.35.1 // indirect
	github.com/sethvargo/go-envconfig v0.8.3 // indirect
	github.com/shirou/gopsutil v3.21.4+incompatible // indirect
	github.com/sirupsen/logrus v1.9.0 // indirect
	github.com/tklauser/go-sysconf v0.3.6 // indirect
	github.com/tklauser/numcpus v0.2.2 // indirect
	github.com/valyala/bytebufferpool v1.0.0 // indirect
	go.uber.org/atomic v1.7.0 // indirect
	go.uber.org/multierr v1.6.0 // indirect
	go.uber.org/zap v1.24.0 // indirect
	golang.org/x/net v0.0.0-20220722155237-a158d28d115b // indirect
	golang.org/x/oauth2 v0.0.0-20220411215720-9780585627b5 // indirect
	golang.org/x/sys v0.0.0-20220722155257-8c9f86f7a55f // indirect
	golang.org/x/term v0.0.0-20210927222741-03fcf44c2211 // indirect
	golang.org/x/text v0.4.0 // indirect
	golang.org/x/time v0.0.0-20220224211638-0e9765cccd65 // indirect
	google.golang.org/appengine v1.6.7 // indirect
	google.golang.org/genproto v0.0.0-20210402141018-6c239bbf2bb1 // indirect
	google.golang.org/grpc v1.51.0 // indirect
	google.golang.org/protobuf v1.28.1 // indirect
	gopkg.in/inf.v0 v0.9.1 // indirect
	gopkg.in/yaml.v2 v2.4.0 // indirect
	gopkg.in/yaml.v3 v3.0.1 // indirect
	k8s.io/api v0.24.0 // indirect
	k8s.io/apimachinery v0.24.0 // indirect
	k8s.io/client-go v0.24.0 // indirect
	k8s.io/klog/v2 v2.60.1 // indirect
	k8s.io/kube-openapi v0.0.0-20220328201542-3ee0da9b0b42 // indirect
	k8s.io/utils v0.0.0-20220210201930-3a6ce19ff2f9 // indirect
	sigs.k8s.io/json v0.0.0-20211208200746-9f7c6b3444d2 // indirect
	sigs.k8s.io/structured-merge-diff/v4 v4.2.1 // indirect
	sigs.k8s.io/yaml v1.3.0 // indirect
)
